mc16_13TeV:mc16_13TeV.396293.MGPy8EG_A14N23LO_C1C1_Stau_100p0_0p0_2L1T.deriv.DAOD_SUSY3.e7231_a875_r10724_p3759    
mc16_13TeV:mc16_13TeV.396294.MGPy8EG_A14N23LO_C1C1_Stau_100p0_35p0_2L1T.deriv.DAOD_SUSY3.e7231_a875_r10724_p3759   
mc16_13TeV:mc16_13TeV.396295.MGPy8EG_A14N23LO_C1C1_Stau_100p0_65p0_2L1T.deriv.DAOD_SUSY3.e7231_a875_r10724_p3759   
mc16_13TeV:mc16_13TeV.396296.MGPy8EG_A14N23LO_C1C1_Stau_112p5_12p5_2L1T.deriv.DAOD_SUSY3.e7231_a875_r10724_p3759   
mc16_13TeV:mc16_13TeV.396297.MGPy8EG_A14N23LO_C1C1_Stau_112p5_47p5_2L1T.deriv.DAOD_SUSY3.e7231_a875_r10724_p3759   
mc16_13TeV:mc16_13TeV.396298.MGPy8EG_A14N23LO_C1C1_Stau_117p5_82p5_2L1T.deriv.DAOD_SUSY3.e7231_a875_r10724_p3759   
mc16_13TeV:mc16_13TeV.396299.MGPy8EG_A14N23LO_C1C1_Stau_130p0_30p0_2L1T.deriv.DAOD_SUSY3.e7231_a875_r10724_p3759   
mc16_13TeV:mc16_13TeV.396300.MGPy8EG_A14N23LO_C1C1_Stau_132p5_67p5_2L1T.deriv.DAOD_SUSY3.e7231_a875_r10724_p3759   
mc16_13TeV:mc16_13TeV.396301.MGPy8EG_A14N23LO_C1C1_Stau_142p5_107p5_2L1T.deriv.DAOD_SUSY3.e7231_a875_r10724_p3759  
mc16_13TeV:mc16_13TeV.396302.MGPy8EG_A14N23LO_C1C1_Stau_150p0_50p0_2L1T.deriv.DAOD_SUSY3.e7231_a875_r10724_p3759   
mc16_13TeV:mc16_13TeV.396303.MGPy8EG_A14N23LO_C1C1_Stau_157p5_92p5_2L1T.deriv.DAOD_SUSY3.e7231_a875_r10724_p3759   
mc16_13TeV:mc16_13TeV.396304.MGPy8EG_A14N23LO_C1C1_Stau_167p5_132p5_2L1T.deriv.DAOD_SUSY3.e7231_a875_r10724_p3759  
mc16_13TeV:mc16_13TeV.396305.MGPy8EG_A14N23LO_C1C1_Stau_175p0_25p0_2L1T.deriv.DAOD_SUSY3.e7231_a875_r10724_p3759   
mc16_13TeV:mc16_13TeV.396306.MGPy8EG_A14N23LO_C1C1_Stau_175p0_75p0_2L1T.deriv.DAOD_SUSY3.e7231_a875_r10724_p3759   
mc16_13TeV:mc16_13TeV.396307.MGPy8EG_A14N23LO_C1C1_Stau_182p5_117p5_2L1T.deriv.DAOD_SUSY3.e7231_a875_r10724_p3759  
mc16_13TeV:mc16_13TeV.396308.MGPy8EG_A14N23LO_C1C1_Stau_192p5_157p5_2L1T.deriv.DAOD_SUSY3.e7231_a875_r10724_p3759  
mc16_13TeV:mc16_13TeV.396309.MGPy8EG_A14N23LO_C1C1_Stau_200p0_0p0_2L1T.deriv.DAOD_SUSY3.e7231_a875_r10724_p3759    
mc16_13TeV:mc16_13TeV.396310.MGPy8EG_A14N23LO_C1C1_Stau_200p0_100p0_2L1T.deriv.DAOD_SUSY3.e7231_a875_r10724_p3759  
mc16_13TeV:mc16_13TeV.396311.MGPy8EG_A14N23LO_C1C1_Stau_200p0_50p0_2L1T.deriv.DAOD_SUSY3.e7231_a875_r10724_p3759   
mc16_13TeV:mc16_13TeV.396312.MGPy8EG_A14N23LO_C1C1_Stau_207p5_142p5_2L1T.deriv.DAOD_SUSY3.e7231_a875_r10724_p3759  
mc16_13TeV:mc16_13TeV.396313.MGPy8EG_A14N23LO_C1C1_Stau_217p5_182p5_2L1T.deriv.DAOD_SUSY3.e7231_a875_r10724_p3759  
mc16_13TeV:mc16_13TeV.396314.MGPy8EG_A14N23LO_C1C1_Stau_225p0_125p0_2L1T.deriv.DAOD_SUSY3.e7231_a875_r10724_p3759  
mc16_13TeV:mc16_13TeV.396315.MGPy8EG_A14N23LO_C1C1_Stau_225p0_75p0_2L1T.deriv.DAOD_SUSY3.e7231_a875_r10724_p3759   
mc16_13TeV:mc16_13TeV.396316.MGPy8EG_A14N23LO_C1C1_Stau_232p5_167p5_2L1T.deriv.DAOD_SUSY3.e7231_a875_r10724_p3759  
mc16_13TeV:mc16_13TeV.396317.MGPy8EG_A14N23LO_C1C1_Stau_242p5_207p5_2L1T.deriv.DAOD_SUSY3.e7231_a875_r10724_p3759  
mc16_13TeV:mc16_13TeV.396318.MGPy8EG_A14N23LO_C1C1_Stau_250p0_100p0_2L1T.deriv.DAOD_SUSY3.e7231_a875_r10724_p3759  
mc16_13TeV:mc16_13TeV.396319.MGPy8EG_A14N23LO_C1C1_Stau_250p0_150p0_2L1T.deriv.DAOD_SUSY3.e7231_a875_r10724_p3759  
mc16_13TeV:mc16_13TeV.396320.MGPy8EG_A14N23LO_C1C1_Stau_257p5_192p5_2L1T.deriv.DAOD_SUSY3.e7231_a875_r10724_p3759  
mc16_13TeV:mc16_13TeV.396321.MGPy8EG_A14N23LO_C1C1_Stau_267p5_232p5_2L1T.deriv.DAOD_SUSY3.e7231_a875_r10724_p3759  
mc16_13TeV:mc16_13TeV.396322.MGPy8EG_A14N23LO_C1C1_Stau_275p0_125p0_2L1T.deriv.DAOD_SUSY3.e7231_a875_r10724_p3759  
mc16_13TeV:mc16_13TeV.396323.MGPy8EG_A14N23LO_C1C1_Stau_275p0_175p0_2L1T.deriv.DAOD_SUSY3.e7231_a875_r10724_p3759  
mc16_13TeV:mc16_13TeV.396324.MGPy8EG_A14N23LO_C1C1_Stau_282p5_217p5_2L1T.deriv.DAOD_SUSY3.e7231_a875_r10724_p3759  
mc16_13TeV:mc16_13TeV.396325.MGPy8EG_A14N23LO_C1C1_Stau_300p0_0p0_2L1T.deriv.DAOD_SUSY3.e7231_a875_r10724_p3759    
mc16_13TeV:mc16_13TeV.396326.MGPy8EG_A14N23LO_C1C1_Stau_300p0_100p0_2L1T.deriv.DAOD_SUSY3.e7231_a875_r10724_p3759  
mc16_13TeV:mc16_13TeV.396327.MGPy8EG_A14N23LO_C1C1_Stau_300p0_150p0_2L1T.deriv.DAOD_SUSY3.e7231_a875_r10724_p3759  
mc16_13TeV:mc16_13TeV.396328.MGPy8EG_A14N23LO_C1C1_Stau_300p0_200p0_2L1T.deriv.DAOD_SUSY3.e7231_a875_r10724_p3759  
mc16_13TeV:mc16_13TeV.396329.MGPy8EG_A14N23LO_C1C1_Stau_325p0_125p0_2L1T.deriv.DAOD_SUSY3.e7231_a875_r10724_p3759  
mc16_13TeV:mc16_13TeV.396330.MGPy8EG_A14N23LO_C1C1_Stau_325p0_175p0_2L1T.deriv.DAOD_SUSY3.e7231_a875_r10724_p3759  
mc16_13TeV:mc16_13TeV.396331.MGPy8EG_A14N23LO_C1C1_Stau_325p0_225p0_2L1T.deriv.DAOD_SUSY3.e7231_a875_r10724_p3759  
mc16_13TeV:mc16_13TeV.396332.MGPy8EG_A14N23LO_C1C1_Stau_330p0_295p0_2L1T.deriv.DAOD_SUSY3.e7231_a875_r10724_p3759  
mc16_13TeV:mc16_13TeV.396333.MGPy8EG_A14N23LO_C1C1_Stau_345p0_280p0_2L1T.deriv.DAOD_SUSY3.e7231_a875_r10724_p3759  
mc16_13TeV:mc16_13TeV.396334.MGPy8EG_A14N23LO_C1C1_Stau_350p0_150p0_2L1T.deriv.DAOD_SUSY3.e7231_a875_r10724_p3759  
mc16_13TeV:mc16_13TeV.396335.MGPy8EG_A14N23LO_C1C1_Stau_350p0_200p0_2L1T.deriv.DAOD_SUSY3.e7231_a875_r10724_p3759  
mc16_13TeV:mc16_13TeV.396336.MGPy8EG_A14N23LO_C1C1_Stau_362p5_262p5_2L1T.deriv.DAOD_SUSY3.e7231_a875_r10724_p3759  
mc16_13TeV:mc16_13TeV.396337.MGPy8EG_A14N23LO_C1C1_Stau_375p0_175p0_2L1T.deriv.DAOD_SUSY3.e7231_a875_r10724_p3759  
mc16_13TeV:mc16_13TeV.396338.MGPy8EG_A14N23LO_C1C1_Stau_387p5_237p5_2L1T.deriv.DAOD_SUSY3.e7231_a875_r10724_p3759  
mc16_13TeV:mc16_13TeV.396339.MGPy8EG_A14N23LO_C1C1_Stau_400p0_0p0_2L1T.deriv.DAOD_SUSY3.e7231_a875_r10724_p3759    
mc16_13TeV:mc16_13TeV.396340.MGPy8EG_A14N23LO_C1C1_Stau_400p0_100p0_2L1T.deriv.DAOD_SUSY3.e7231_a875_r10724_p3759  
mc16_13TeV:mc16_13TeV.396341.MGPy8EG_A14N23LO_C1C1_Stau_400p0_300p0_2L1T.deriv.DAOD_SUSY3.e7231_a875_r10724_p3759  
mc16_13TeV:mc16_13TeV.396342.MGPy8EG_A14N23LO_C1C1_Stau_412p5_212p5_2L1T.deriv.DAOD_SUSY3.e7231_a875_r10724_p3759  
mc16_13TeV:mc16_13TeV.396343.MGPy8EG_A14N23LO_C1C1_Stau_425p0_275p0_2L1T.deriv.DAOD_SUSY3.e7231_a875_r10724_p3759  
mc16_13TeV:mc16_13TeV.396344.MGPy8EG_A14N23LO_C1C1_Stau_450p0_250p0_2L1T.deriv.DAOD_SUSY3.e7231_a875_r10724_p3759  
mc16_13TeV:mc16_13TeV.396345.MGPy8EG_A14N23LO_C1C1_Stau_450p0_350p0_2L1T.deriv.DAOD_SUSY3.e7231_a875_r10724_p3759  
mc16_13TeV:mc16_13TeV.396346.MGPy8EG_A14N23LO_C1C1_Stau_475p0_325p0_2L1T.deriv.DAOD_SUSY3.e7231_a875_r10724_p3759  
mc16_13TeV:mc16_13TeV.396347.MGPy8EG_A14N23LO_C1C1_Stau_500p0_0p0_2L1T.deriv.DAOD_SUSY3.e7231_a875_r10724_p3759    
mc16_13TeV:mc16_13TeV.396348.MGPy8EG_A14N23LO_C1C1_Stau_500p0_100p0_2L1T.deriv.DAOD_SUSY3.e7231_a875_r10724_p3759  
mc16_13TeV:mc16_13TeV.396349.MGPy8EG_A14N23LO_C1C1_Stau_500p0_200p0_2L1T.deriv.DAOD_SUSY3.e7231_a875_r10724_p3759  
mc16_13TeV:mc16_13TeV.396350.MGPy8EG_A14N23LO_C1C1_Stau_500p0_300p0_2L1T.deriv.DAOD_SUSY3.e7231_a875_r10724_p3759  
mc16_13TeV:mc16_13TeV.396351.MGPy8EG_A14N23LO_C1C1_Stau_500p0_400p0_2L1T.deriv.DAOD_SUSY3.e7231_a875_r10724_p3759  
mc16_13TeV:mc16_13TeV.396352.MGPy8EG_A14N23LO_C1C1_Stau_525p0_375p0_2L1T.deriv.DAOD_SUSY3.e7231_a875_r10724_p3759  
mc16_13TeV:mc16_13TeV.396353.MGPy8EG_A14N23LO_C1C1_Stau_550p0_350p0_2L1T.deriv.DAOD_SUSY3.e7231_a875_r10724_p3759  
mc16_13TeV:mc16_13TeV.396354.MGPy8EG_A14N23LO_C1C1_Stau_550p0_450p0_2L1T.deriv.DAOD_SUSY3.e7231_a875_r10724_p3759  
mc16_13TeV:mc16_13TeV.396355.MGPy8EG_A14N23LO_C1C1_Stau_575p0_425p0_2L1T.deriv.DAOD_SUSY3.e7231_a875_r10724_p3759  
mc16_13TeV:mc16_13TeV.396356.MGPy8EG_A14N23LO_C1C1_Stau_600p0_0p0_2L1T.deriv.DAOD_SUSY3.e7231_a875_r10724_p3759    
mc16_13TeV:mc16_13TeV.396357.MGPy8EG_A14N23LO_C1C1_Stau_600p0_100p0_2L1T.deriv.DAOD_SUSY3.e7231_a875_r10724_p3759  
mc16_13TeV:mc16_13TeV.396358.MGPy8EG_A14N23LO_C1C1_Stau_600p0_200p0_2L1T.deriv.DAOD_SUSY3.e7231_a875_r10724_p3759  
mc16_13TeV:mc16_13TeV.396359.MGPy8EG_A14N23LO_C1C1_Stau_600p0_300p0_2L1T.deriv.DAOD_SUSY3.e7231_a875_r10724_p3759  
mc16_13TeV:mc16_13TeV.396360.MGPy8EG_A14N23LO_C1C1_Stau_600p0_400p0_2L1T.deriv.DAOD_SUSY3.e7231_a875_r10724_p3759  
mc16_13TeV:mc16_13TeV.396361.MGPy8EG_A14N23LO_C1C1_Stau_600p0_500p0_2L1T.deriv.DAOD_SUSY3.e7231_a875_r10724_p3759  
mc16_13TeV:mc16_13TeV.396362.MGPy8EG_A14N23LO_C1C1_Stau_625p0_475p0_2L1T.deriv.DAOD_SUSY3.e7231_a875_r10724_p3759  
mc16_13TeV:mc16_13TeV.396363.MGPy8EG_A14N23LO_C1C1_Stau_650p0_350p0_2L1T.deriv.DAOD_SUSY3.e7231_a875_r10724_p3759  
mc16_13TeV:mc16_13TeV.396364.MGPy8EG_A14N23LO_C1C1_Stau_650p0_450p0_2L1T.deriv.DAOD_SUSY3.e7231_a875_r10724_p3759  
mc16_13TeV:mc16_13TeV.396365.MGPy8EG_A14N23LO_C1C1_Stau_650p0_550p0_2L1T.deriv.DAOD_SUSY3.e7231_a875_r10724_p3759  
mc16_13TeV:mc16_13TeV.396366.MGPy8EG_A14N23LO_C1C1_Stau_675p0_525p0_2L1T.deriv.DAOD_SUSY3.e7231_a875_r10724_p3759  
mc16_13TeV:mc16_13TeV.396367.MGPy8EG_A14N23LO_C1C1_Stau_700p0_0p0_2L1T.deriv.DAOD_SUSY3.e7231_a875_r10724_p3759    
mc16_13TeV:mc16_13TeV.396368.MGPy8EG_A14N23LO_C1C1_Stau_700p0_100p0_2L1T.deriv.DAOD_SUSY3.e7231_a875_r10724_p3759  
mc16_13TeV:mc16_13TeV.396369.MGPy8EG_A14N23LO_C1C1_Stau_700p0_200p0_2L1T.deriv.DAOD_SUSY3.e7231_a875_r10724_p3759  
mc16_13TeV:mc16_13TeV.396370.MGPy8EG_A14N23LO_C1C1_Stau_700p0_300p0_2L1T.deriv.DAOD_SUSY3.e7231_a875_r10724_p3759  
mc16_13TeV:mc16_13TeV.396371.MGPy8EG_A14N23LO_C1C1_Stau_700p0_400p0_2L1T.deriv.DAOD_SUSY3.e7231_a875_r10724_p3759  
mc16_13TeV:mc16_13TeV.396372.MGPy8EG_A14N23LO_C1C1_Stau_700p0_500p0_2L1T.deriv.DAOD_SUSY3.e7231_a875_r10724_p3759  
mc16_13TeV:mc16_13TeV.396373.MGPy8EG_A14N23LO_C1C1_Stau_700p0_600p0_2L1T.deriv.DAOD_SUSY3.e7231_a875_r10724_p3759  
mc16_13TeV:mc16_13TeV.396374.MGPy8EG_A14N23LO_C1C1_Stau_725p0_575p0_2L1T.deriv.DAOD_SUSY3.e7231_a875_r10724_p3759  
mc16_13TeV:mc16_13TeV.396375.MGPy8EG_A14N23LO_C1C1_Stau_750p0_450p0_2L1T.deriv.DAOD_SUSY3.e7231_a875_r10724_p3759  
mc16_13TeV:mc16_13TeV.396376.MGPy8EG_A14N23LO_C1C1_Stau_750p0_550p0_2L1T.deriv.DAOD_SUSY3.e7231_a875_r10724_p3759  
mc16_13TeV:mc16_13TeV.396377.MGPy8EG_A14N23LO_C1C1_Stau_800p0_0p0_2L1T.deriv.DAOD_SUSY3.e7231_a875_r10724_p3759    
mc16_13TeV:mc16_13TeV.396378.MGPy8EG_A14N23LO_C1C1_Stau_800p0_100p0_2L1T.deriv.DAOD_SUSY3.e7231_a875_r10724_p3759  
mc16_13TeV:mc16_13TeV.396379.MGPy8EG_A14N23LO_C1C1_Stau_800p0_200p0_2L1T.deriv.DAOD_SUSY3.e7231_a875_r10724_p3759  
mc16_13TeV:mc16_13TeV.396380.MGPy8EG_A14N23LO_C1C1_Stau_800p0_300p0_2L1T.deriv.DAOD_SUSY3.e7231_a875_r10724_p3759  
mc16_13TeV:mc16_13TeV.396381.MGPy8EG_A14N23LO_C1C1_Stau_800p0_400p0_2L1T.deriv.DAOD_SUSY3.e7231_a875_r10724_p3759  
mc16_13TeV:mc16_13TeV.396382.MGPy8EG_A14N23LO_C1C1_Stau_800p0_500p0_2L1T.deriv.DAOD_SUSY3.e7231_a875_r10724_p3759  
mc16_13TeV:mc16_13TeV.396383.MGPy8EG_A14N23LO_C1C1_Stau_800p0_600p0_2L1T.deriv.DAOD_SUSY3.e7231_a875_r10724_p3759  
mc16_13TeV:mc16_13TeV.396384.MGPy8EG_A14N23LO_C1C1_Stau_900p0_0p0_2L1T.deriv.DAOD_SUSY3.e7231_a875_r10724_p3759    
mc16_13TeV:mc16_13TeV.396385.MGPy8EG_A14N23LO_C1C1_Stau_900p0_100p0_2L1T.deriv.DAOD_SUSY3.e7231_a875_r10724_p3759  
mc16_13TeV:mc16_13TeV.396386.MGPy8EG_A14N23LO_C1C1_Stau_900p0_200p0_2L1T.deriv.DAOD_SUSY3.e7231_a875_r10724_p3759  
mc16_13TeV:mc16_13TeV.396387.MGPy8EG_A14N23LO_C1C1_Stau_900p0_300p0_2L1T.deriv.DAOD_SUSY3.e7231_a875_r10724_p3759  
mc16_13TeV:mc16_13TeV.396388.MGPy8EG_A14N23LO_C1C1_Stau_900p0_400p0_2L1T.deriv.DAOD_SUSY3.e7231_a875_r10724_p3759  
mc16_13TeV:mc16_13TeV.396389.MGPy8EG_A14N23LO_C1C1_Stau_900p0_500p0_2L1T.deriv.DAOD_SUSY3.e7231_a875_r10724_p3759  
mc16_13TeV:mc16_13TeV.396390.MGPy8EG_A14N23LO_C1C1_Stau_900p0_600p0_2L1T.deriv.DAOD_SUSY3.e7231_a875_r10724_p3759  
mc16_13TeV:mc16_13TeV.396391.MGPy8EG_A14N23LO_C1C1_Stau_1000p0_0p0_2L1T.deriv.DAOD_SUSY3.e7231_a875_r10724_p3759   
mc16_13TeV:mc16_13TeV.396392.MGPy8EG_A14N23LO_C1C1_Stau_1000p0_100p0_2L1T.deriv.DAOD_SUSY3.e7231_a875_r10724_p3759 
mc16_13TeV:mc16_13TeV.396393.MGPy8EG_A14N23LO_C1C1_Stau_1000p0_200p0_2L1T.deriv.DAOD_SUSY3.e7231_a875_r10724_p3759 
mc16_13TeV:mc16_13TeV.396394.MGPy8EG_A14N23LO_C1C1_Stau_1000p0_300p0_2L1T.deriv.DAOD_SUSY3.e7231_a875_r10724_p3759 
mc16_13TeV:mc16_13TeV.396395.MGPy8EG_A14N23LO_C1C1_Stau_1000p0_400p0_2L1T.deriv.DAOD_SUSY3.e7231_a875_r10724_p3759 
mc16_13TeV:mc16_13TeV.396396.MGPy8EG_A14N23LO_C1C1_Stau_1000p0_500p0_2L1T.deriv.DAOD_SUSY3.e7231_a875_r10724_p3759 
mc16_13TeV:mc16_13TeV.396397.MGPy8EG_A14N23LO_C1C1_Stau_1000p0_600p0_2L1T.deriv.DAOD_SUSY3.e7231_a875_r10724_p3759 
mc16_13TeV:mc16_13TeV.396398.MGPy8EG_A14N23LO_C1C1_Stau_1100p0_0p0_2L1T.deriv.DAOD_SUSY3.e7231_a875_r10724_p3759   
mc16_13TeV:mc16_13TeV.396399.MGPy8EG_A14N23LO_C1C1_Stau_1100p0_100p0_2L1T.deriv.DAOD_SUSY3.e7231_a875_r10724_p3759 
mc16_13TeV:mc16_13TeV.396400.MGPy8EG_A14N23LO_C1C1_Stau_1100p0_200p0_2L1T.deriv.DAOD_SUSY3.e7231_a875_r10724_p3759 
mc16_13TeV:mc16_13TeV.396401.MGPy8EG_A14N23LO_C1C1_Stau_1100p0_300p0_2L1T.deriv.DAOD_SUSY3.e7236_a875_r10724_p3759 
mc16_13TeV:mc16_13TeV.396402.MGPy8EG_A14N23LO_C1C1_Stau_1100p0_400p0_2L1T.deriv.DAOD_SUSY3.e7231_a875_r10724_p3759 
mc16_13TeV:mc16_13TeV.396403.MGPy8EG_A14N23LO_C1C1_Stau_1100p0_500p0_2L1T.deriv.DAOD_SUSY3.e7231_a875_r10724_p3759 
mc16_13TeV:mc16_13TeV.396404.MGPy8EG_A14N23LO_C1C1_Stau_1100p0_600p0_2L1T.deriv.DAOD_SUSY3.e7231_a875_r10724_p3759 
mc16_13TeV:mc16_13TeV.396405.MGPy8EG_A14N23LO_C1C1_Stau_1200p0_0p0_2L1T.deriv.DAOD_SUSY3.e7231_a875_r10724_p3759   
mc16_13TeV:mc16_13TeV.396406.MGPy8EG_A14N23LO_C1C1_Stau_1200p0_100p0_2L1T.deriv.DAOD_SUSY3.e7231_a875_r10724_p3759 
mc16_13TeV:mc16_13TeV.396407.MGPy8EG_A14N23LO_C1C1_Stau_1200p0_200p0_2L1T.deriv.DAOD_SUSY3.e7231_a875_r10724_p3759 
mc16_13TeV:mc16_13TeV.396408.MGPy8EG_A14N23LO_C1C1_Stau_1200p0_300p0_2L1T.deriv.DAOD_SUSY3.e7231_a875_r10724_p3759 
mc16_13TeV:mc16_13TeV.396409.MGPy8EG_A14N23LO_C1C1_Stau_1200p0_400p0_2L1T.deriv.DAOD_SUSY3.e7231_a875_r10724_p3759 
mc16_13TeV:mc16_13TeV.396410.MGPy8EG_A14N23LO_C1C1_Stau_1200p0_500p0_2L1T.deriv.DAOD_SUSY3.e7231_a875_r10724_p3759 
mc16_13TeV:mc16_13TeV.396411.MGPy8EG_A14N23LO_C1C1_Stau_1200p0_600p0_2L1T.deriv.DAOD_SUSY3.e7232_a875_r10724_p3759 
mc16_13TeV:mc16_13TeV.396412.MGPy8EG_A14N23LO_C1N2_Stau_100p0_0p0_2L1T.deriv.DAOD_SUSY3.e7232_a875_r10724_p3759    
mc16_13TeV:mc16_13TeV.396413.MGPy8EG_A14N23LO_C1N2_Stau_100p0_35p0_2L1T.deriv.DAOD_SUSY3.e7232_a875_r10724_p3759   
mc16_13TeV:mc16_13TeV.396414.MGPy8EG_A14N23LO_C1N2_Stau_100p0_65p0_2L1T.deriv.DAOD_SUSY3.e7232_a875_r10724_p3759   
mc16_13TeV:mc16_13TeV.396415.MGPy8EG_A14N23LO_C1N2_Stau_112p5_12p5_2L1T.deriv.DAOD_SUSY3.e7232_a875_r10724_p3759   
mc16_13TeV:mc16_13TeV.396416.MGPy8EG_A14N23LO_C1N2_Stau_112p5_47p5_2L1T.deriv.DAOD_SUSY3.e7232_a875_r10724_p3759   
mc16_13TeV:mc16_13TeV.396417.MGPy8EG_A14N23LO_C1N2_Stau_117p5_82p5_2L1T.deriv.DAOD_SUSY3.e7232_a875_r10724_p3759   
mc16_13TeV:mc16_13TeV.396418.MGPy8EG_A14N23LO_C1N2_Stau_130p0_30p0_2L1T.deriv.DAOD_SUSY3.e7232_a875_r10724_p3759   
mc16_13TeV:mc16_13TeV.396419.MGPy8EG_A14N23LO_C1N2_Stau_132p5_67p5_2L1T.deriv.DAOD_SUSY3.e7232_a875_r10724_p3759   
mc16_13TeV:mc16_13TeV.396420.MGPy8EG_A14N23LO_C1N2_Stau_142p5_107p5_2L1T.deriv.DAOD_SUSY3.e7232_a875_r10724_p3759  
mc16_13TeV:mc16_13TeV.396421.MGPy8EG_A14N23LO_C1N2_Stau_150p0_50p0_2L1T.deriv.DAOD_SUSY3.e7232_a875_r10724_p3759   
mc16_13TeV:mc16_13TeV.396422.MGPy8EG_A14N23LO_C1N2_Stau_157p5_92p5_2L1T.deriv.DAOD_SUSY3.e7232_a875_r10724_p3759   
mc16_13TeV:mc16_13TeV.396423.MGPy8EG_A14N23LO_C1N2_Stau_167p5_132p5_2L1T.deriv.DAOD_SUSY3.e7232_a875_r10724_p3759  
mc16_13TeV:mc16_13TeV.396424.MGPy8EG_A14N23LO_C1N2_Stau_175p0_25p0_2L1T.deriv.DAOD_SUSY3.e7232_a875_r10724_p3759   
mc16_13TeV:mc16_13TeV.396425.MGPy8EG_A14N23LO_C1N2_Stau_175p0_75p0_2L1T.deriv.DAOD_SUSY3.e7232_a875_r10724_p3759   
mc16_13TeV:mc16_13TeV.396426.MGPy8EG_A14N23LO_C1N2_Stau_182p5_117p5_2L1T.deriv.DAOD_SUSY3.e7232_a875_r10724_p3759  
mc16_13TeV:mc16_13TeV.396427.MGPy8EG_A14N23LO_C1N2_Stau_192p5_157p5_2L1T.deriv.DAOD_SUSY3.e7232_a875_r10724_p3759  
mc16_13TeV:mc16_13TeV.396428.MGPy8EG_A14N23LO_C1N2_Stau_200p0_0p0_2L1T.deriv.DAOD_SUSY3.e7232_a875_r10724_p3759    
mc16_13TeV:mc16_13TeV.396429.MGPy8EG_A14N23LO_C1N2_Stau_200p0_100p0_2L1T.deriv.DAOD_SUSY3.e7232_a875_r10724_p3759  
mc16_13TeV:mc16_13TeV.396430.MGPy8EG_A14N23LO_C1N2_Stau_200p0_50p0_2L1T.deriv.DAOD_SUSY3.e7232_a875_r10724_p3759   
mc16_13TeV:mc16_13TeV.396431.MGPy8EG_A14N23LO_C1N2_Stau_207p5_142p5_2L1T.deriv.DAOD_SUSY3.e7232_a875_r10724_p3759  
mc16_13TeV:mc16_13TeV.396432.MGPy8EG_A14N23LO_C1N2_Stau_217p5_182p5_2L1T.deriv.DAOD_SUSY3.e7232_a875_r10724_p3759  
mc16_13TeV:mc16_13TeV.396433.MGPy8EG_A14N23LO_C1N2_Stau_225p0_125p0_2L1T.deriv.DAOD_SUSY3.e7232_a875_r10724_p3759  
mc16_13TeV:mc16_13TeV.396434.MGPy8EG_A14N23LO_C1N2_Stau_225p0_75p0_2L1T.deriv.DAOD_SUSY3.e7232_a875_r10724_p3759   
mc16_13TeV:mc16_13TeV.396435.MGPy8EG_A14N23LO_C1N2_Stau_232p5_167p5_2L1T.deriv.DAOD_SUSY3.e7232_a875_r10724_p3759  
mc16_13TeV:mc16_13TeV.396436.MGPy8EG_A14N23LO_C1N2_Stau_242p5_207p5_2L1T.deriv.DAOD_SUSY3.e7232_a875_r10724_p3759  
mc16_13TeV:mc16_13TeV.396437.MGPy8EG_A14N23LO_C1N2_Stau_250p0_100p0_2L1T.deriv.DAOD_SUSY3.e7232_a875_r10724_p3759  
mc16_13TeV:mc16_13TeV.396438.MGPy8EG_A14N23LO_C1N2_Stau_250p0_150p0_2L1T.deriv.DAOD_SUSY3.e7232_a875_r10724_p3759  
mc16_13TeV:mc16_13TeV.396439.MGPy8EG_A14N23LO_C1N2_Stau_257p5_192p5_2L1T.deriv.DAOD_SUSY3.e7232_a875_r10724_p3759  
mc16_13TeV:mc16_13TeV.396440.MGPy8EG_A14N23LO_C1N2_Stau_267p5_232p5_2L1T.deriv.DAOD_SUSY3.e7232_a875_r10724_p3759  
mc16_13TeV:mc16_13TeV.396441.MGPy8EG_A14N23LO_C1N2_Stau_275p0_125p0_2L1T.deriv.DAOD_SUSY3.e7232_a875_r10724_p3759  
mc16_13TeV:mc16_13TeV.396442.MGPy8EG_A14N23LO_C1N2_Stau_275p0_175p0_2L1T.deriv.DAOD_SUSY3.e7232_a875_r10724_p3759  
mc16_13TeV:mc16_13TeV.396443.MGPy8EG_A14N23LO_C1N2_Stau_282p5_217p5_2L1T.deriv.DAOD_SUSY3.e7232_a875_r10724_p3759  
mc16_13TeV:mc16_13TeV.396444.MGPy8EG_A14N23LO_C1N2_Stau_300p0_0p0_2L1T.deriv.DAOD_SUSY3.e7232_a875_r10724_p3759    
mc16_13TeV:mc16_13TeV.396445.MGPy8EG_A14N23LO_C1N2_Stau_300p0_100p0_2L1T.deriv.DAOD_SUSY3.e7232_a875_r10724_p3759  
mc16_13TeV:mc16_13TeV.396446.MGPy8EG_A14N23LO_C1N2_Stau_300p0_150p0_2L1T.deriv.DAOD_SUSY3.e7232_a875_r10724_p3759  
mc16_13TeV:mc16_13TeV.396447.MGPy8EG_A14N23LO_C1N2_Stau_300p0_200p0_2L1T.deriv.DAOD_SUSY3.e7232_a875_r10724_p3759  
mc16_13TeV:mc16_13TeV.396448.MGPy8EG_A14N23LO_C1N2_Stau_325p0_125p0_2L1T.deriv.DAOD_SUSY3.e7232_a875_r10724_p3759  
mc16_13TeV:mc16_13TeV.396449.MGPy8EG_A14N23LO_C1N2_Stau_325p0_175p0_2L1T.deriv.DAOD_SUSY3.e7232_a875_r10724_p3759  
mc16_13TeV:mc16_13TeV.396450.MGPy8EG_A14N23LO_C1N2_Stau_325p0_225p0_2L1T.deriv.DAOD_SUSY3.e7232_a875_r10724_p3759  
mc16_13TeV:mc16_13TeV.396451.MGPy8EG_A14N23LO_C1N2_Stau_330p0_295p0_2L1T.deriv.DAOD_SUSY3.e7232_a875_r10724_p3759  
mc16_13TeV:mc16_13TeV.396452.MGPy8EG_A14N23LO_C1N2_Stau_345p0_280p0_2L1T.deriv.DAOD_SUSY3.e7232_a875_r10724_p3759  
mc16_13TeV:mc16_13TeV.396453.MGPy8EG_A14N23LO_C1N2_Stau_350p0_150p0_2L1T.deriv.DAOD_SUSY3.e7232_a875_r10724_p3759  
mc16_13TeV:mc16_13TeV.396454.MGPy8EG_A14N23LO_C1N2_Stau_350p0_200p0_2L1T.deriv.DAOD_SUSY3.e7232_a875_r10724_p3759  
mc16_13TeV:mc16_13TeV.396455.MGPy8EG_A14N23LO_C1N2_Stau_362p5_262p5_2L1T.deriv.DAOD_SUSY3.e7232_a875_r10724_p3759  
mc16_13TeV:mc16_13TeV.396456.MGPy8EG_A14N23LO_C1N2_Stau_375p0_175p0_2L1T.deriv.DAOD_SUSY3.e7232_a875_r10724_p3759  
mc16_13TeV:mc16_13TeV.396457.MGPy8EG_A14N23LO_C1N2_Stau_387p5_237p5_2L1T.deriv.DAOD_SUSY3.e7232_a875_r10724_p3759  
mc16_13TeV:mc16_13TeV.396458.MGPy8EG_A14N23LO_C1N2_Stau_400p0_0p0_2L1T.deriv.DAOD_SUSY3.e7232_a875_r10724_p3759    
mc16_13TeV:mc16_13TeV.396459.MGPy8EG_A14N23LO_C1N2_Stau_400p0_100p0_2L1T.deriv.DAOD_SUSY3.e7232_a875_r10724_p3759  
mc16_13TeV:mc16_13TeV.396460.MGPy8EG_A14N23LO_C1N2_Stau_400p0_300p0_2L1T.deriv.DAOD_SUSY3.e7232_a875_r10724_p3759  
mc16_13TeV:mc16_13TeV.396461.MGPy8EG_A14N23LO_C1N2_Stau_412p5_212p5_2L1T.deriv.DAOD_SUSY3.e7232_a875_r10724_p3759  
mc16_13TeV:mc16_13TeV.396462.MGPy8EG_A14N23LO_C1N2_Stau_425p0_275p0_2L1T.deriv.DAOD_SUSY3.e7232_a875_r10724_p3759  
mc16_13TeV:mc16_13TeV.396463.MGPy8EG_A14N23LO_C1N2_Stau_450p0_250p0_2L1T.deriv.DAOD_SUSY3.e7232_a875_r10724_p3759  
mc16_13TeV:mc16_13TeV.396464.MGPy8EG_A14N23LO_C1N2_Stau_450p0_350p0_2L1T.deriv.DAOD_SUSY3.e7232_a875_r10724_p3759  
mc16_13TeV:mc16_13TeV.396465.MGPy8EG_A14N23LO_C1N2_Stau_475p0_325p0_2L1T.deriv.DAOD_SUSY3.e7232_a875_r10724_p3759  
mc16_13TeV:mc16_13TeV.396466.MGPy8EG_A14N23LO_C1N2_Stau_500p0_0p0_2L1T.deriv.DAOD_SUSY3.e7232_a875_r10724_p3759    
mc16_13TeV:mc16_13TeV.396467.MGPy8EG_A14N23LO_C1N2_Stau_500p0_100p0_2L1T.deriv.DAOD_SUSY3.e7232_a875_r10724_p3759  
mc16_13TeV:mc16_13TeV.396468.MGPy8EG_A14N23LO_C1N2_Stau_500p0_200p0_2L1T.deriv.DAOD_SUSY3.e7232_a875_r10724_p3759  
mc16_13TeV:mc16_13TeV.396469.MGPy8EG_A14N23LO_C1N2_Stau_500p0_300p0_2L1T.deriv.DAOD_SUSY3.e7232_a875_r10724_p3759  
mc16_13TeV:mc16_13TeV.396470.MGPy8EG_A14N23LO_C1N2_Stau_500p0_400p0_2L1T.deriv.DAOD_SUSY3.e7232_a875_r10724_p3759  
mc16_13TeV:mc16_13TeV.396471.MGPy8EG_A14N23LO_C1N2_Stau_525p0_375p0_2L1T.deriv.DAOD_SUSY3.e7232_a875_r10724_p3759  
mc16_13TeV:mc16_13TeV.396472.MGPy8EG_A14N23LO_C1N2_Stau_550p0_350p0_2L1T.deriv.DAOD_SUSY3.e7232_a875_r10724_p3759  
mc16_13TeV:mc16_13TeV.396473.MGPy8EG_A14N23LO_C1N2_Stau_550p0_450p0_2L1T.deriv.DAOD_SUSY3.e7232_a875_r10724_p3759  
mc16_13TeV:mc16_13TeV.396474.MGPy8EG_A14N23LO_C1N2_Stau_575p0_425p0_2L1T.deriv.DAOD_SUSY3.e7232_a875_r10724_p3759  
mc16_13TeV:mc16_13TeV.396475.MGPy8EG_A14N23LO_C1N2_Stau_600p0_0p0_2L1T.deriv.DAOD_SUSY3.e7232_a875_r10724_p3759    
mc16_13TeV:mc16_13TeV.396476.MGPy8EG_A14N23LO_C1N2_Stau_600p0_100p0_2L1T.deriv.DAOD_SUSY3.e7232_a875_r10724_p3759  
mc16_13TeV:mc16_13TeV.396477.MGPy8EG_A14N23LO_C1N2_Stau_600p0_200p0_2L1T.deriv.DAOD_SUSY3.e7232_a875_r10724_p3759  
mc16_13TeV:mc16_13TeV.396478.MGPy8EG_A14N23LO_C1N2_Stau_600p0_300p0_2L1T.deriv.DAOD_SUSY3.e7232_a875_r10724_p3759  
mc16_13TeV:mc16_13TeV.396479.MGPy8EG_A14N23LO_C1N2_Stau_600p0_400p0_2L1T.deriv.DAOD_SUSY3.e7232_a875_r10724_p3759  
mc16_13TeV:mc16_13TeV.396480.MGPy8EG_A14N23LO_C1N2_Stau_600p0_500p0_2L1T.deriv.DAOD_SUSY3.e7234_a875_r10724_p3759  
mc16_13TeV:mc16_13TeV.396481.MGPy8EG_A14N23LO_C1N2_Stau_625p0_475p0_2L1T.deriv.DAOD_SUSY3.e7232_a875_r10724_p3759  
mc16_13TeV:mc16_13TeV.396482.MGPy8EG_A14N23LO_C1N2_Stau_650p0_350p0_2L1T.deriv.DAOD_SUSY3.e7232_a875_r10724_p3759  
mc16_13TeV:mc16_13TeV.396483.MGPy8EG_A14N23LO_C1N2_Stau_650p0_450p0_2L1T.deriv.DAOD_SUSY3.e7232_a875_r10724_p3759  
mc16_13TeV:mc16_13TeV.396484.MGPy8EG_A14N23LO_C1N2_Stau_650p0_550p0_2L1T.deriv.DAOD_SUSY3.e7232_a875_r10724_p3759  
mc16_13TeV:mc16_13TeV.396485.MGPy8EG_A14N23LO_C1N2_Stau_675p0_525p0_2L1T.deriv.DAOD_SUSY3.e7232_a875_r10724_p3759  
mc16_13TeV:mc16_13TeV.396486.MGPy8EG_A14N23LO_C1N2_Stau_700p0_0p0_2L1T.deriv.DAOD_SUSY3.e7232_a875_r10724_p3759    
mc16_13TeV:mc16_13TeV.396487.MGPy8EG_A14N23LO_C1N2_Stau_700p0_100p0_2L1T.deriv.DAOD_SUSY3.e7232_a875_r10724_p3759  
mc16_13TeV:mc16_13TeV.396488.MGPy8EG_A14N23LO_C1N2_Stau_700p0_200p0_2L1T.deriv.DAOD_SUSY3.e7232_a875_r10724_p3759  
mc16_13TeV:mc16_13TeV.396489.MGPy8EG_A14N23LO_C1N2_Stau_700p0_300p0_2L1T.deriv.DAOD_SUSY3.e7232_a875_r10724_p3759  
mc16_13TeV:mc16_13TeV.396490.MGPy8EG_A14N23LO_C1N2_Stau_700p0_400p0_2L1T.deriv.DAOD_SUSY3.e7232_a875_r10724_p3759  
mc16_13TeV:mc16_13TeV.396491.MGPy8EG_A14N23LO_C1N2_Stau_700p0_500p0_2L1T.deriv.DAOD_SUSY3.e7232_a875_r10724_p3759  
mc16_13TeV:mc16_13TeV.396492.MGPy8EG_A14N23LO_C1N2_Stau_700p0_600p0_2L1T.deriv.DAOD_SUSY3.e7232_a875_r10724_p3759  
mc16_13TeV:mc16_13TeV.396493.MGPy8EG_A14N23LO_C1N2_Stau_725p0_575p0_2L1T.deriv.DAOD_SUSY3.e7232_a875_r10724_p3759  
mc16_13TeV:mc16_13TeV.396494.MGPy8EG_A14N23LO_C1N2_Stau_750p0_450p0_2L1T.deriv.DAOD_SUSY3.e7232_a875_r10724_p3759  
mc16_13TeV:mc16_13TeV.396495.MGPy8EG_A14N23LO_C1N2_Stau_750p0_550p0_2L1T.deriv.DAOD_SUSY3.e7232_a875_r10724_p3759  
mc16_13TeV:mc16_13TeV.396496.MGPy8EG_A14N23LO_C1N2_Stau_800p0_0p0_2L1T.deriv.DAOD_SUSY3.e7232_a875_r10724_p3759    
mc16_13TeV:mc16_13TeV.396497.MGPy8EG_A14N23LO_C1N2_Stau_800p0_100p0_2L1T.deriv.DAOD_SUSY3.e7232_a875_r10724_p3759  
mc16_13TeV:mc16_13TeV.396498.MGPy8EG_A14N23LO_C1N2_Stau_800p0_200p0_2L1T.deriv.DAOD_SUSY3.e7232_a875_r10724_p3759  
mc16_13TeV:mc16_13TeV.396499.MGPy8EG_A14N23LO_C1N2_Stau_800p0_300p0_2L1T.deriv.DAOD_SUSY3.e7232_a875_r10724_p3759  
mc16_13TeV:mc16_13TeV.396500.MGPy8EG_A14N23LO_C1N2_Stau_800p0_400p0_2L1T.deriv.DAOD_SUSY3.e7232_a875_r10724_p3759  
mc16_13TeV:mc16_13TeV.396501.MGPy8EG_A14N23LO_C1N2_Stau_800p0_500p0_2L1T.deriv.DAOD_SUSY3.e7232_a875_r10724_p3759  
mc16_13TeV:mc16_13TeV.396502.MGPy8EG_A14N23LO_C1N2_Stau_800p0_600p0_2L1T.deriv.DAOD_SUSY3.e7232_a875_r10724_p3759  
mc16_13TeV:mc16_13TeV.396503.MGPy8EG_A14N23LO_C1N2_Stau_900p0_0p0_2L1T.deriv.DAOD_SUSY3.e7232_a875_r10724_p3759    
mc16_13TeV:mc16_13TeV.396504.MGPy8EG_A14N23LO_C1N2_Stau_900p0_100p0_2L1T.deriv.DAOD_SUSY3.e7232_a875_r10724_p3759  
mc16_13TeV:mc16_13TeV.396505.MGPy8EG_A14N23LO_C1N2_Stau_900p0_200p0_2L1T.deriv.DAOD_SUSY3.e7232_a875_r10724_p3759  
mc16_13TeV:mc16_13TeV.396506.MGPy8EG_A14N23LO_C1N2_Stau_900p0_300p0_2L1T.deriv.DAOD_SUSY3.e7232_a875_r10724_p3759  
mc16_13TeV:mc16_13TeV.396507.MGPy8EG_A14N23LO_C1N2_Stau_900p0_400p0_2L1T.deriv.DAOD_SUSY3.e7232_a875_r10724_p3759  
mc16_13TeV:mc16_13TeV.396508.MGPy8EG_A14N23LO_C1N2_Stau_900p0_500p0_2L1T.deriv.DAOD_SUSY3.e7232_a875_r10724_p3759  
mc16_13TeV:mc16_13TeV.396509.MGPy8EG_A14N23LO_C1N2_Stau_900p0_600p0_2L1T.deriv.DAOD_SUSY3.e7232_a875_r10724_p3759  
mc16_13TeV:mc16_13TeV.396510.MGPy8EG_A14N23LO_C1N2_Stau_1000p0_0p0_2L1T.deriv.DAOD_SUSY3.e7232_a875_r10724_p3759   
mc16_13TeV:mc16_13TeV.396511.MGPy8EG_A14N23LO_C1N2_Stau_1000p0_100p0_2L1T.deriv.DAOD_SUSY3.e7232_a875_r10724_p3759 
mc16_13TeV:mc16_13TeV.396512.MGPy8EG_A14N23LO_C1N2_Stau_1000p0_200p0_2L1T.deriv.DAOD_SUSY3.e7232_a875_r10724_p3759 
mc16_13TeV:mc16_13TeV.396513.MGPy8EG_A14N23LO_C1N2_Stau_1000p0_300p0_2L1T.deriv.DAOD_SUSY3.e7232_a875_r10724_p3759 
mc16_13TeV:mc16_13TeV.396514.MGPy8EG_A14N23LO_C1N2_Stau_1000p0_400p0_2L1T.deriv.DAOD_SUSY3.e7232_a875_r10724_p3759 
mc16_13TeV:mc16_13TeV.396515.MGPy8EG_A14N23LO_C1N2_Stau_1000p0_500p0_2L1T.deriv.DAOD_SUSY3.e7232_a875_r10724_p3759 
mc16_13TeV:mc16_13TeV.396516.MGPy8EG_A14N23LO_C1N2_Stau_1000p0_600p0_2L1T.deriv.DAOD_SUSY3.e7232_a875_r10724_p3759 
mc16_13TeV:mc16_13TeV.396517.MGPy8EG_A14N23LO_C1N2_Stau_1100p0_0p0_2L1T.deriv.DAOD_SUSY3.e7232_a875_r10724_p3759   
mc16_13TeV:mc16_13TeV.396518.MGPy8EG_A14N23LO_C1N2_Stau_1100p0_100p0_2L1T.deriv.DAOD_SUSY3.e7232_a875_r10724_p3759 
mc16_13TeV:mc16_13TeV.396519.MGPy8EG_A14N23LO_C1N2_Stau_1100p0_200p0_2L1T.deriv.DAOD_SUSY3.e7232_a875_r10724_p3759 
mc16_13TeV:mc16_13TeV.396520.MGPy8EG_A14N23LO_C1N2_Stau_1100p0_300p0_2L1T.deriv.DAOD_SUSY3.e7232_a875_r10724_p3759 
mc16_13TeV:mc16_13TeV.396521.MGPy8EG_A14N23LO_C1N2_Stau_1100p0_400p0_2L1T.deriv.DAOD_SUSY3.e7232_a875_r10724_p3759 
mc16_13TeV:mc16_13TeV.396522.MGPy8EG_A14N23LO_C1N2_Stau_1100p0_500p0_2L1T.deriv.DAOD_SUSY3.e7232_a875_r10724_p3759 
mc16_13TeV:mc16_13TeV.396523.MGPy8EG_A14N23LO_C1N2_Stau_1100p0_600p0_2L1T.deriv.DAOD_SUSY3.e7232_a875_r10724_p3759 
mc16_13TeV:mc16_13TeV.396524.MGPy8EG_A14N23LO_C1N2_Stau_1200p0_0p0_2L1T.deriv.DAOD_SUSY3.e7232_a875_r10724_p3759   
mc16_13TeV:mc16_13TeV.396525.MGPy8EG_A14N23LO_C1N2_Stau_1200p0_100p0_2L1T.deriv.DAOD_SUSY3.e7232_a875_r10724_p3759 
mc16_13TeV:mc16_13TeV.396526.MGPy8EG_A14N23LO_C1N2_Stau_1200p0_200p0_2L1T.deriv.DAOD_SUSY3.e7232_a875_r10724_p3759 
mc16_13TeV:mc16_13TeV.396527.MGPy8EG_A14N23LO_C1N2_Stau_1200p0_300p0_2L1T.deriv.DAOD_SUSY3.e7232_a875_r10724_p3759 
mc16_13TeV:mc16_13TeV.396528.MGPy8EG_A14N23LO_C1N2_Stau_1200p0_400p0_2L1T.deriv.DAOD_SUSY3.e7232_a875_r10724_p3759 
mc16_13TeV:mc16_13TeV.396529.MGPy8EG_A14N23LO_C1N2_Stau_1200p0_500p0_2L1T.deriv.DAOD_SUSY3.e7232_a875_r10724_p3759 
mc16_13TeV:mc16_13TeV.396530.MGPy8EG_A14N23LO_C1N2_Stau_1200p0_600p0_2L1T.deriv.DAOD_SUSY3.e7232_a875_r10724_p3759 
