mc16_13TeV:mc16_13TeV.396587.MadGraphPythia8EvtGen_A14N23LO_C1N2_Wh_hall_150p0_0p0_1T.deriv.DAOD_SUSY3.e7351_a875_r9364_p3815    
mc16_13TeV:mc16_13TeV.396588.MadGraphPythia8EvtGen_A14N23LO_C1N2_Wh_hall_152p5_22p5_1T.deriv.DAOD_SUSY3.e7351_a875_r9364_p3815   
mc16_13TeV:mc16_13TeV.396589.MadGraphPythia8EvtGen_A14N23LO_C1N2_Wh_hall_162p5_12p5_1T.deriv.DAOD_SUSY3.e7351_a875_r9364_p3815   
mc16_13TeV:mc16_13TeV.396590.MadGraphPythia8EvtGen_A14N23LO_C1N2_Wh_hall_165p0_35p0_1T.deriv.DAOD_SUSY3.e7351_a875_r9364_p3815   
mc16_13TeV:mc16_13TeV.396591.MadGraphPythia8EvtGen_A14N23LO_C1N2_Wh_hall_175p0_0p0_1T.deriv.DAOD_SUSY3.e7351_a875_r9364_p3815    
mc16_13TeV:mc16_13TeV.396592.MadGraphPythia8EvtGen_A14N23LO_C1N2_Wh_hall_175p0_25p0_1T.deriv.DAOD_SUSY3.e7351_a875_r9364_p3815   
mc16_13TeV:mc16_13TeV.396593.MadGraphPythia8EvtGen_A14N23LO_C1N2_Wh_hall_177p5_47p5_1T.deriv.DAOD_SUSY3.e7351_a875_r9364_p3815   
mc16_13TeV:mc16_13TeV.396594.MadGraphPythia8EvtGen_A14N23LO_C1N2_Wh_hall_187p5_12p5_1T.deriv.DAOD_SUSY3.e7351_a875_r9364_p3815   
mc16_13TeV:mc16_13TeV.396595.MadGraphPythia8EvtGen_A14N23LO_C1N2_Wh_hall_187p5_37p5_1T.deriv.DAOD_SUSY3.e7351_a875_r9364_p3815   
mc16_13TeV:mc16_13TeV.396596.MadGraphPythia8EvtGen_A14N23LO_C1N2_Wh_hall_190p0_60p0_1T.deriv.DAOD_SUSY3.e7351_a875_r9364_p3815   
mc16_13TeV:mc16_13TeV.396597.MadGraphPythia8EvtGen_A14N23LO_C1N2_Wh_hall_200p0_0p0_1T.deriv.DAOD_SUSY3.e7351_a875_r9364_p3815    
mc16_13TeV:mc16_13TeV.396598.MadGraphPythia8EvtGen_A14N23LO_C1N2_Wh_hall_200p0_25p0_1T.deriv.DAOD_SUSY3.e7351_a875_r9364_p3815   
mc16_13TeV:mc16_13TeV.396599.MadGraphPythia8EvtGen_A14N23LO_C1N2_Wh_hall_200p0_50p0_1T.deriv.DAOD_SUSY3.e7351_a875_r9364_p3815   
mc16_13TeV:mc16_13TeV.396600.MadGraphPythia8EvtGen_A14N23LO_C1N2_Wh_hall_202p5_72p5_1T.deriv.DAOD_SUSY3.e7351_a875_r9364_p3815   
mc16_13TeV:mc16_13TeV.396601.MadGraphPythia8EvtGen_A14N23LO_C1N2_Wh_hall_212p5_37p5_1T.deriv.DAOD_SUSY3.e7351_a875_r9364_p3815   
mc16_13TeV:mc16_13TeV.396602.MadGraphPythia8EvtGen_A14N23LO_C1N2_Wh_hall_212p5_62p5_1T.deriv.DAOD_SUSY3.e7351_a875_r9364_p3815   
mc16_13TeV:mc16_13TeV.396603.MadGraphPythia8EvtGen_A14N23LO_C1N2_Wh_hall_225p0_0p0_1T.deriv.DAOD_SUSY3.e7351_a875_r9364_p3815    
mc16_13TeV:mc16_13TeV.396604.MadGraphPythia8EvtGen_A14N23LO_C1N2_Wh_hall_225p0_25p0_1T.deriv.DAOD_SUSY3.e7351_a875_r9364_p3815   
mc16_13TeV:mc16_13TeV.396605.MadGraphPythia8EvtGen_A14N23LO_C1N2_Wh_hall_225p0_50p0_1T.deriv.DAOD_SUSY3.e7351_a875_r9364_p3815   
mc16_13TeV:mc16_13TeV.396606.MadGraphPythia8EvtGen_A14N23LO_C1N2_Wh_hall_225p0_75p0_1T.deriv.DAOD_SUSY3.e7351_a875_r9364_p3815   
mc16_13TeV:mc16_13TeV.396607.MadGraphPythia8EvtGen_A14N23LO_C1N2_Wh_hall_237p5_62p5_1T.deriv.DAOD_SUSY3.e7351_a875_r9364_p3815   
mc16_13TeV:mc16_13TeV.396608.MadGraphPythia8EvtGen_A14N23LO_C1N2_Wh_hall_250p0_0p0_1T.deriv.DAOD_SUSY3.e7351_a875_r9364_p3815    
mc16_13TeV:mc16_13TeV.396609.MadGraphPythia8EvtGen_A14N23LO_C1N2_Wh_hall_250p0_100p0_1T.deriv.DAOD_SUSY3.e7351_a875_r9364_p3815  
mc16_13TeV:mc16_13TeV.396610.MadGraphPythia8EvtGen_A14N23LO_C1N2_Wh_hall_250p0_25p0_1T.deriv.DAOD_SUSY3.e7351_a875_r9364_p3815   
mc16_13TeV:mc16_13TeV.396611.MadGraphPythia8EvtGen_A14N23LO_C1N2_Wh_hall_250p0_50p0_1T.deriv.DAOD_SUSY3.e7351_a875_r9364_p3815   
mc16_13TeV:mc16_13TeV.396612.MadGraphPythia8EvtGen_A14N23LO_C1N2_Wh_hall_250p0_75p0_1T.deriv.DAOD_SUSY3.e7351_a875_r9364_p3815   
mc16_13TeV:mc16_13TeV.396613.MadGraphPythia8EvtGen_A14N23LO_C1N2_Wh_hall_275p0_0p0_1T.deriv.DAOD_SUSY3.e7351_a875_r9364_p3815    
mc16_13TeV:mc16_13TeV.396614.MadGraphPythia8EvtGen_A14N23LO_C1N2_Wh_hall_275p0_25p0_1T.deriv.DAOD_SUSY3.e7351_a875_r9364_p3815   
mc16_13TeV:mc16_13TeV.396615.MadGraphPythia8EvtGen_A14N23LO_C1N2_Wh_hall_275p0_50p0_1T.deriv.DAOD_SUSY3.e7351_a875_r9364_p3815   
mc16_13TeV:mc16_13TeV.396616.MadGraphPythia8EvtGen_A14N23LO_C1N2_Wh_hall_275p0_75p0_1T.deriv.DAOD_SUSY3.e7351_a875_r9364_p3815   
mc16_13TeV:mc16_13TeV.396617.MadGraphPythia8EvtGen_A14N23LO_C1N2_Wh_hall_300p0_0p0_1T.deriv.DAOD_SUSY3.e7351_a875_r9364_p3815    
mc16_13TeV:mc16_13TeV.396618.MadGraphPythia8EvtGen_A14N23LO_C1N2_Wh_hall_300p0_100p0_1T.deriv.DAOD_SUSY3.e7351_a875_r9364_p3815  
mc16_13TeV:mc16_13TeV.396619.MadGraphPythia8EvtGen_A14N23LO_C1N2_Wh_hall_300p0_25p0_1T.deriv.DAOD_SUSY3.e7351_a875_r9364_p3815   
mc16_13TeV:mc16_13TeV.396620.MadGraphPythia8EvtGen_A14N23LO_C1N2_Wh_hall_300p0_50p0_1T.deriv.DAOD_SUSY3.e7351_a875_r9364_p3815   
mc16_13TeV:mc16_13TeV.396621.MadGraphPythia8EvtGen_A14N23LO_C1N2_Wh_hall_300p0_75p0_1T.deriv.DAOD_SUSY3.e7351_a875_r9364_p3815   
mc16_13TeV:mc16_13TeV.396622.MadGraphPythia8EvtGen_A14N23LO_C1N2_Wh_hall_325p0_0p0_1T.deriv.DAOD_SUSY3.e7351_a875_r9364_p3815    
mc16_13TeV:mc16_13TeV.396623.MadGraphPythia8EvtGen_A14N23LO_C1N2_Wh_hall_325p0_50p0_1T.deriv.DAOD_SUSY3.e7351_a875_r9364_p3815   
mc16_13TeV:mc16_13TeV.396624.MadGraphPythia8EvtGen_A14N23LO_C1N2_Wh_hall_350p0_0p0_1T.deriv.DAOD_SUSY3.e7351_a875_r9364_p3815    
mc16_13TeV:mc16_13TeV.396625.MadGraphPythia8EvtGen_A14N23LO_C1N2_Wh_hall_350p0_100p0_1T.deriv.DAOD_SUSY3.e7351_a875_r9364_p3815  
mc16_13TeV:mc16_13TeV.396626.MadGraphPythia8EvtGen_A14N23LO_C1N2_Wh_hall_350p0_25p0_1T.deriv.DAOD_SUSY3.e7351_a875_r9364_p3815   
mc16_13TeV:mc16_13TeV.396627.MadGraphPythia8EvtGen_A14N23LO_C1N2_Wh_hall_350p0_50p0_1T.deriv.DAOD_SUSY3.e7351_a875_r9364_p3815   
mc16_13TeV:mc16_13TeV.396628.MadGraphPythia8EvtGen_A14N23LO_C1N2_Wh_hall_350p0_75p0_1T.deriv.DAOD_SUSY3.e7351_a875_r9364_p3815   
mc16_13TeV:mc16_13TeV.396629.MadGraphPythia8EvtGen_A14N23LO_C1N2_Wh_hall_375p0_0p0_1T.deriv.DAOD_SUSY3.e7351_a875_r9364_p3815    
mc16_13TeV:mc16_13TeV.396630.MadGraphPythia8EvtGen_A14N23LO_C1N2_Wh_hall_375p0_50p0_1T.deriv.DAOD_SUSY3.e7351_a875_r9364_p3815   
mc16_13TeV:mc16_13TeV.396631.MadGraphPythia8EvtGen_A14N23LO_C1N2_Wh_hall_400p0_0p0_1T.deriv.DAOD_SUSY3.e7351_a875_r9364_p3815    
mc16_13TeV:mc16_13TeV.396632.MadGraphPythia8EvtGen_A14N23LO_C1N2_Wh_hall_400p0_25p0_1T.deriv.DAOD_SUSY3.e7351_a875_r9364_p3815   
mc16_13TeV:mc16_13TeV.396633.MadGraphPythia8EvtGen_A14N23LO_C1N2_Wh_hall_425p0_0p0_1T.deriv.DAOD_SUSY3.e7351_a875_r9364_p3815    
