#2015
data15_13TeV:data15_13TeV.00267639.periodA_debugrec_hlt.deriv.DAOD_SUSY18.g49_r9264_p3841
data15_13TeV:data15_13TeV.00271744.periodC_debugrec_hlt.deriv.DAOD_SUSY18.g49_r9264_p3841
data15_13TeV:data15_13TeV.00276954.periodD_debugrec_hlt.deriv.DAOD_SUSY18.g49_r9264_p3841
data15_13TeV:data15_13TeV.00279928.periodE_debugrec_hlt.deriv.DAOD_SUSY18.g49_r9264_p3841
data15_13TeV:data15_13TeV.00280368.periodF_debugrec_hlt.deriv.DAOD_SUSY18.g49_r9264_p3841
data15_13TeV:data15_13TeV.00281075.periodG_debugrec_hlt.deriv.DAOD_SUSY18.g49_r9264_p3841
data15_13TeV:data15_13TeV.00281411.periodH_debugrec_hlt.deriv.DAOD_SUSY18.g49_r9264_p3841
data15_13TeV:data15_13TeV.00284484.periodJ_debugrec_hlt.deriv.DAOD_SUSY18.g49_r9264_p3841

#2016
data16_13TeV:data16_13TeV.00300279.periodA_debugrec_hlt.deriv.DAOD_SUSY18.g53_r9264_p3841
data16_13TeV:data16_13TeV.00300908.periodB_debugrec_hlt.deriv.DAOD_SUSY18.g53_r9264_p3841
data16_13TeV:data16_13TeV.00302393.periodC_debugrec_hlt.deriv.DAOD_SUSY18.g53_r9264_p3841
data16_13TeV:data16_13TeV.00303560.periodD_debugrec_hlt.deriv.DAOD_SUSY18.g53_r9264_p3841
data16_13TeV:data16_13TeV.00303892.periodE_debugrec_hlt.deriv.DAOD_SUSY18.g53_r9264_p3841
data16_13TeV:data16_13TeV.00304494.periodF_debugrec_hlt.deriv.DAOD_SUSY18.g53_r9264_p3841
data16_13TeV:data16_13TeV.00306451.periodG_debugrec_hlt.deriv.DAOD_SUSY18.g53_r9264_p3841
data16_13TeV:data16_13TeV.00308084.periodI_debugrec_hlt.deriv.DAOD_SUSY18.g53_r9264_p3841
data16_13TeV:data16_13TeV.00309759.periodK_debugrec_hlt.deriv.DAOD_SUSY18.g53_r9264_p3841
data16_13TeV:data16_13TeV.00311481.periodL_debugrec_hlt.deriv.DAOD_SUSY18.g53_r9264_p3841

#2017
data17_13TeV:data17_13TeV.00328263.periodB_debugrec_hlt.deriv.DAOD_SUSY18.g54_r10260_p3841
data17_13TeV:data17_13TeV.00330203.periodC_debugrec_hlt.deriv.DAOD_SUSY18.g54_r10258_p3841
data17_13TeV:data17_13TeV.00331975.periodD_debugrec_hlt.deriv.DAOD_SUSY18.g54_r10258_p3841
data17_13TeV:data17_13TeV.00334737.periodE_debugrec_hlt.deriv.DAOD_SUSY18.g54_r10258_p3841
data17_13TeV:data17_13TeV.00335083.periodF_debugrec_hlt.deriv.DAOD_SUSY18.g54_r10258_p3841
data17_13TeV:data17_13TeV.00336567.periodH_debugrec_hlt.deriv.DAOD_SUSY18.g54_r10258_p3841
data17_13TeV:data17_13TeV.00337662.periodI_debugrec_hlt.deriv.DAOD_SUSY18.g54_r10258_p3841
data17_13TeV:data17_13TeV.00340453.periodK_debugrec_hlt.deriv.DAOD_SUSY18.g54_r10426_p3841
data17_13TeV:data17_13TeV.00341649.periodN_debugrec_hlt.deriv.DAOD_SUSY18.g54_r10930_p3841

#2018
data18_13TeV:data18_13TeV.00348836.periodA_debugrec_hlt.deriv.DAOD_SUSY18.g54_f921_m1947_p3841
data18_13TeV:data18_13TeV.00349533.periodB_debugrec_hlt.deriv.DAOD_SUSY18.g54_f929_m1955_p3841
data18_13TeV:data18_13TeV.00350160.periodC_debugrec_hlt.deriv.DAOD_SUSY18.g54_f934_m1960_p3841
data18_13TeV:data18_13TeV.00351969.periodD_debugrec_hlt.deriv.DAOD_SUSY18.g54_f938_m1979_p3841
data18_13TeV:data18_13TeV.00352123.periodE_debugrec_hlt.deriv.DAOD_SUSY18.g54_f938_m1979_p3841
data18_13TeV:data18_13TeV.00352494.periodF_debugrec_hlt.deriv.DAOD_SUSY18.g54_f938_m1979_p3841
data18_13TeV:data18_13TeV.00354311.periodG_debugrec_hlt.deriv.DAOD_SUSY18.g54_f941_m1992_p3841
data18_13TeV:data18_13TeV.00355109.periodH_debugrec_hlt.deriv.DAOD_SUSY18.g54_f943_m1993_p3841
data18_13TeV:data18_13TeV.00355468.periodJ_debugrec_hlt.deriv.DAOD_SUSY18.g54_f948_m1993_p3841
data18_13TeV:data18_13TeV.00356124.periodK_debugrec_hlt.deriv.DAOD_SUSY18.g54_f950_m2004_p3841
data18_13TeV:data18_13TeV.00359124.periodL_debugrec_hlt.deriv.DAOD_SUSY18.g54_f964_m2020_p3841
data18_13TeV:data18_13TeV.00360373.periodM_debugrec_hlt.deriv.DAOD_SUSY18.g54_f969_m2020_p3841
data18_13TeV:data18_13TeV.00361696.periodN_debugrec_hlt.deriv.DAOD_SUSY18.g54_f979_m2025_p3841
data18_13TeV:data18_13TeV.00363400.periodO_debugrec_hlt.deriv.DAOD_SUSY18.g54_f997_m2032_p3841
data18_13TeV:data18_13TeV.00364214.periodQ_debugrec_hlt.deriv.DAOD_SUSY18.g54_f1002_m2037_p3841
