mc16_13TeV.396100.MGPy8EG_A14N23LO_StauStau_200p0_1p0_TFilt_mmix_s12.deriv.DAOD_SUSY3.e6707_e5984_a875_r10201_r10210_p3563    
mc16_13TeV.396100.MGPy8EG_A14N23LO_StauStau_200p0_1p0_TFilt_mmix_s12.deriv.DAOD_SUSY3.e6707_e5984_a875_r9364_r9315_p3563    
mc16_13TeV.396101.MGPy8EG_A14N23LO_StauStau_200p0_1p0_TFilt_mmix_s12_Dm100.deriv.DAOD_SUSY3.e6707_e5984_a875_r10201_r10210_p3563    
mc16_13TeV.396101.MGPy8EG_A14N23LO_StauStau_200p0_1p0_TFilt_mmix_s12_Dm100.deriv.DAOD_SUSY3.e6707_e5984_a875_r9364_r9315_p3563    
mc16_13TeV.396102.MGPy8EG_A14N23LO_StauStau_120p0_1p0_TFilt.deriv.DAOD_SUSY3.e6707_e5984_a875_r10201_r10210_p3563    
mc16_13TeV.396103.MGPy8EG_A14N23LO_StauStau_160p0_1p0_TFilt.deriv.DAOD_SUSY3.e6707_e5984_a875_r10201_r10210_p3563    
mc16_13TeV.396103.MGPy8EG_A14N23LO_StauStau_160p0_1p0_TFilt.deriv.DAOD_SUSY3.e6707_e5984_a875_r9364_r9315_p3563    
mc16_13TeV.396104.MGPy8EG_A14N23LO_StauStau_200p0_1p0_TFilt.deriv.DAOD_SUSY3.e6707_e5984_a875_r9364_r9315_p3563    
mc16_13TeV.396105.MGPy8EG_A14N23LO_StauStau_240p0_1p0_TFilt.deriv.DAOD_SUSY3.e6707_e5984_a875_r10201_r10210_p3563    
mc16_13TeV.396105.MGPy8EG_A14N23LO_StauStau_240p0_1p0_TFilt.deriv.DAOD_SUSY3.e6707_e5984_a875_r9364_r9315_p3563    
mc16_13TeV.396107.MGPy8EG_A14N23LO_StauStau_120p0_40p0_TFilt.deriv.DAOD_SUSY3.e6707_e5984_a875_r9364_r9315_p3563    
mc16_13TeV.396108.MGPy8EG_A14N23LO_StauStau_160p0_40p0_TFilt.deriv.DAOD_SUSY3.e6707_e5984_a875_r9364_r9315_p3563    
mc16_13TeV.396110.MGPy8EG_A14N23LO_StauStau_240p0_40p0_TFilt.deriv.DAOD_SUSY3.e6707_e5984_a875_r10201_r10210_p3563    
mc16_13TeV.396110.MGPy8EG_A14N23LO_StauStau_240p0_40p0_TFilt.deriv.DAOD_SUSY3.e6707_e5984_a875_r9364_r9315_p3563    
mc16_13TeV.396111.MGPy8EG_A14N23LO_StauStau_280p0_40p0_TFilt.deriv.DAOD_SUSY3.e6707_e5984_a875_r9364_r9315_p3563    
mc16_13TeV.396112.MGPy8EG_A14N23LO_StauStau_160p0_80p0_TFilt.deriv.DAOD_SUSY3.e6707_e5984_a875_r9364_r9315_p3563    
