mc16_13TeV.394534.MadGraphPythia8EvtGen_A14N23LO_C1N2_Wh_hall_375p0_0p0_tau.deriv.DAOD_SUSY3.e6489_a875_r10201_p3404	
mc16_13TeV.394480.MadGraphPythia8EvtGen_A14N23LO_C1N2_Wh_hall_190p0_60p0_tau.deriv.DAOD_SUSY3.e6489_a875_r10201_p3404	
mc16_13TeV.394481.MadGraphPythia8EvtGen_A14N23LO_C1N2_Wh_hall_200p0_0p0_tau.deriv.DAOD_SUSY3.e6489_a875_r10201_p3404
#mc16_13TeV.394481.MadGraphPythia8EvtGen_A14N23LO_C1N2_Wh_hall_200p0_0p0_tau.deriv.DAOD_SUSY3.e6489_s3126_r10201_p3404 
mc16_13TeV:mc16_13TeV.396100.MGPy8EG_A14N23LO_StauStau_200p0_1p0_TFilt_mmix_s12.deriv.DAOD_SUSY3.e6707_a875_r10201_p3563
mc16_13TeV:mc16_13TeV.396101.MGPy8EG_A14N23LO_StauStau_200p0_1p0_TFilt_mmix_s12_Dm100.deriv.DAOD_SUSY3.e6707_a875_r10201_p3563
mc16_13TeV:mc16_13TeV.396102.MGPy8EG_A14N23LO_StauStau_120p0_1p0_TFilt.deriv.DAOD_SUSY3.e6707_a875_r10201_p3563
mc16_13TeV:mc16_13TeV.396103.MGPy8EG_A14N23LO_StauStau_160p0_1p0_TFilt.deriv.DAOD_SUSY3.e6707_a875_r10201_p3563
mc16_13TeV:mc16_13TeV.396104.MGPy8EG_A14N23LO_StauStau_200p0_1p0_TFilt.deriv.DAOD_SUSY3.e6707_a875_r10201_p3563
mc16_13TeV:mc16_13TeV.396105.MGPy8EG_A14N23LO_StauStau_240p0_1p0_TFilt.deriv.DAOD_SUSY3.e6707_a875_r10201_p3563
mc16_13TeV:mc16_13TeV.396106.MGPy8EG_A14N23LO_StauStau_280p0_1p0_TFilt.deriv.DAOD_SUSY3.e6707_a875_r10201_p3563
mc16_13TeV:mc16_13TeV.396107.MGPy8EG_A14N23LO_StauStau_120p0_40p0_TFilt.deriv.DAOD_SUSY3.e6707_a875_r10201_p3563
mc16_13TeV:mc16_13TeV.396108.MGPy8EG_A14N23LO_StauStau_160p0_40p0_TFilt.deriv.DAOD_SUSY3.e6707_a875_r10201_p3563
mc16_13TeV:mc16_13TeV.396109.MGPy8EG_A14N23LO_StauStau_200p0_40p0_TFilt.deriv.DAOD_SUSY3.e6707_a875_r10201_p3563
mc16_13TeV:mc16_13TeV.396110.MGPy8EG_A14N23LO_StauStau_240p0_40p0_TFilt.deriv.DAOD_SUSY3.e6707_a875_r10201_p3563
mc16_13TeV:mc16_13TeV.396111.MGPy8EG_A14N23LO_StauStau_280p0_40p0_TFilt.deriv.DAOD_SUSY3.e6707_a875_r10201_p3563
mc16_13TeV:mc16_13TeV.396112.MGPy8EG_A14N23LO_StauStau_160p0_80p0_TFilt.deriv.DAOD_SUSY3.e6707_a875_r10201_p3563
mc16_13TeV:mc16_13TeV.396113.MGPy8EG_A14N23LO_StauStau_240p0_80p0_TFilt.deriv.DAOD_SUSY3.e6707_a875_r10201_p3563
mc16_13TeV:mc16_13TeV.396114.MGPy8EG_A14N23LO_StauStau_80p0_1p0_TFilt.deriv.DAOD_SUSY3.e6707_a875_r10201_p3563
